[
	{
		"equipements": [
			{
				"name": "TV"
			},
			{
				"name": "Retro Projecteur"
			}
		],
		"reservations": [],
		"name": "Salle #1",
		"description": "Salle #1",
		"capacity": 5,
		"createdAt": "2016-12-07T12:39:29.812Z",
		"updatedAt": "2016-12-08T17:31:39.489Z",
		"__v": 0,
		"id": "60c4b2600b9b411048fa76b7"
	},
	{
		"equipements": [
			{
				"name": "Retro Projecteur"
			}
		],
		"reservations": [],
		"name": "Salle #2",
		"description": "Salle #2",
		"capacity": 10,
		"createdAt": "2016-12-07T12:39:55.384Z",
		"updatedAt": "2016-12-07T13:33:37.184Z",
		"__v": 0,
		"id": "60c4b2860b9b411048fa76b8"
	},
	{
		"equipements": [],
		"reservations": [],
		"name": "Salle Okjsdkso",
		"description": "Salle Okjsdkso",
		"capacity": 11,
		"createdAt": "2016-12-07T14:15:55.733Z",
		"updatedAt": "2016-12-09T16:45:19.025Z",
		"__v": 0,
		"id": "60c4b2930b9b411048fa76b9"
	},
	{
		"equipements": [
			{
				"name": "TV"
			},
			{
				"name": "Retro Projecteur"
			}
		],
		"reservations": [],
		"name": "Salle de ouf",
		"description": "Salle de ouf",
		"capacity": 10,
		"createdAt": "2016-12-09T16:45:34.419Z",
		"updatedAt": "2016-12-09T16:45:34.419Z",
		"__v": 0,
		"id": "60c4b29f0b9b411048fa76ba"
	},
	{
		"equipements": [
			{
				"name": "TV"
			},
			{
				"name": "Retro Projecteur"
			}
		],
		"reservations": [
			{
				"from": "2021-06-13T10:30:00.000Z",
				"to": "2021-06-13T12:30:00.000Z"
			}
		],
		"name": "Salle nulle",
		"description": "Salle nulle",
		"capacity": 26,
		"createdAt": "2016-12-09T16:45:49.096Z",
		"updatedAt": "2016-12-09T16:45:49.096Z",
		"__v": 0,
		"id": "60c4d33c11ec17144eb83b60"
	}
]